{
  "category": "Characters",
  "topics": [
    {
      "topic": "Cabinet",
      "entries": [
        {
          "name": "Petr Vectern",
          "containsimage": true,
          "imagepath": "AssigmentAssets/c_petr",
          "text": "Greater Holsord is the second largest region of Sordland, bordering the regions of Nargis, Geisland, Bergia and Lorren, as well as the country of Lespia. the region is governed from the capital of Sordland, holsord. It is the most populous region of Sordlan's seven regions."
        },
        {
          "name": "Lucian Galade",
          "containsimage": false,
          "imagepath": "",
          "text": "Sample Lucian"
        },
        {
          "name": "Lileas Graf",
          "containsimage": true,
          "imagepath": "AssigmentAssets/c_petr",
          "text": "Sample Lileas"
        },
        {
          "name": "Symon Holl",
          "containsimage": true,
          "imagepath": "AssigmentAssets/c_petr",
          "text": "Sample Symon"
        },
        {
          "name": "Iosef Lancea",
          "containsimage": false,
          "imagepath": "",
          "text": "Sample Iosef"
        },
        {
          "name": "Deivid Wisci",
          "containsimage": false,
          "imagepath": "",
          "text": "Sample Deivid"
        },
        {
          "name": "Nia Morgna",
          "containsimage": false,
          "imagepath": "",
          "text": "Sample Nia"
        },
        {
          "name": "Gus Manger",
          "containsimage": true,
          "imagepath": "AssigmentAssets/c_petr",
          "text": "Sample Gus"
        },
        {
          "name": "Clara Walda",
          "containsimage": false,
          "imagepath": "",
          "text": "Sample Clara"
        },
        {
          "name": "Paskal Beniwoll",
          "containsimage": true,
          "imagepath": "AssigmentAssets/c_petr",
          "text": "Sample Paskal"
        },
        {
          "name": "Pla Ceholder",
          "containsimage": true,
          "imagepath": "AssigmentAssets/c_petr",
          "text": "Sample Pla"
        }
      ]
    },
    {
      "topic": "Family",
      "entries": [
        {
          "name": "Peter Placeholder",
          "containsimage": true,
          "imagepath": "AssigmentAssets/c_petr",
          "text": "Sample Peter"
        },
        {
          "name": "Tom",
          "containsimage": false,
          "imagepath": "",
          "text": "Sample Tom"
        }
      ]
    },
    {
      "topic": "Party Leaders",
      "entries": [
        {
          "name": "Peter",
          "containsimage": false,
          "imagepath": "",
          "text": "Sample"
        },
        {
          "name": "Tom",
          "containsimage": false,
          "imagepath": "",
          "text": "Sample"
        }
      ]
    },
    {
      "topic": "The Assembly",
      "entries": [
        {
          "name": "Peter",
          "containsimage": false,
          "imagepath": "",
          "text": "Sample"
        },
        {
          "name": "Tom",
          "containsimage": false,
          "imagepath": "",
          "text": "Sample"
        }
      ]
    },
    {
      "topic": "The Supreme Court",
      "entries": [
        {
          "name": "Peter",
          "containsimage": false,
          "imagepath": "",
          "text": "Sample"
        },
        {
          "name": "Tom",
          "containsimage": false,
          "imagepath": "",
          "text": "Sample"
        }
      ]
    },
    {
      "topic": "The Placeholder",
      "entries": [
        {
          "name": "Peter",
          "containsimage": false,
          "imagepath": "",
          "text": "Sample"
        },
        {
          "name": "Tom",
          "containsimage": false,
          "imagepath": "",
          "text": "Sample"
        }
      ]
    }
  ]
}