{
  "category": "History",
  "topics": [
    {
      "topic": "92's Great Fire",
      "entries": [
        {
          "name": "1992",
          "containsimage": true,
          "imagepath": "AssigmentAssets/c_petr",
          "text": "Placeholder historytext."
        },
        {
          "name": "HistoryPlaceHolder",
          "containsimage": false,
          "imagepath": "",
          "text": "Sample HistoryText"
        },
        {
          "name": "Lileas Graf",
          "containsimage": true,
          "imagepath": "AssigmentAssets/c_petr",
          "text": "Sample Lileas"
        },
        {
          "name": "Symon Holl",
          "containsimage": true,
          "imagepath": "AssigmentAssets/c_petr",
          "text": "Sample Symon"
        },
        {
          "name": "Iosef Lancea",
          "containsimage": false,
          "imagepath": "",
          "text": "Sample Iosef"
        },
        {
          "name": "Deivid Wisci",
          "containsimage": false,
          "imagepath": "",
          "text": "Sample Deivid"
        },
        {
          "name": "Nia Morgna",
          "containsimage": false,
          "imagepath": "",
          "text": "Sample Nia"
        },
        {
          "name": "Gus Manger",
          "containsimage": true,
          "imagepath": "AssigmentAssets/c_petr",
          "text": "Sample Gus"
        },
        {
          "name": "Clara Walda",
          "containsimage": false,
          "imagepath": "",
          "text": "Sample Clara"
        },
        {
          "name": "Paskal Beniwoll",
          "containsimage": true,
          "imagepath": "AssigmentAssets/c_petr",
          "text": "Sample Paskal"
        },
        {
          "name": "Pla Ceholder",
          "containsimage": true,
          "imagepath": "AssigmentAssets/c_petr",
          "text": "Sample Pla"
        }
      ]
    },
    {
      "topic": "The new milenium",
      "entries": [
        {
          "name": "Mileniumplaceholder",
          "containsimage": true,
          "imagepath": "AssigmentAssets/c_petr",
          "text": "Sample Milenium"
        },
        {
          "name": "2000",
          "containsimage": false,
          "imagepath": "",
          "text": "Sample 2000"
        }
      ]
    },
    {
      "topic": "Party Leaders",
      "entries": [
        {
          "name": "Peter",
          "containsimage": false,
          "imagepath": "",
          "text": "Sample"
        },
        {
          "name": "Tom",
          "containsimage": false,
          "imagepath": "",
          "text": "Sample"
        }
      ]
    },
    {
      "topic": "The Assembly",
      "entries": [
        {
          "name": "Peter",
          "containsimage": false,
          "imagepath": "",
          "text": "Sample"
        },
        {
          "name": "Tom",
          "containsimage": false,
          "imagepath": "",
          "text": "Sample"
        }
      ]
    },
    {
      "topic": "The Supreme Court",
      "entries": [
        {
          "name": "Peter",
          "containsimage": false,
          "imagepath": "",
          "text": "Sample"
        },
        {
          "name": "Tom",
          "containsimage": false,
          "imagepath": "",
          "text": "Sample"
        }
      ]
    },
    {
      "topic": "The Placeholder",
      "entries": [
        {
          "name": "Peter",
          "containsimage": false,
          "imagepath": "",
          "text": "Sample"
        },
        {
          "name": "Tom",
          "containsimage": false,
          "imagepath": "",
          "text": "Sample"
        }
      ]
    }
  ]
}